Chapter 5 A First LASSO Attempt | Telfer 2020 Directed Reading: Natural Language Processing
…
## Parsed with column specification:
## cols(
##   business = col_character(),
##   name = col_character(),
##   date = col_character(),
##   comment = col_character(),
##   rating = col_double(),
##   url = col_character()
## )

reviews_yelp

## # A tibble: 9,402 x 6
##    business           name      date       text                                                                                                  rating_num url                            
##    <chr>              <chr>     <date>     <chr>                                                                                                      <dbl> <chr>                          
##  1 La Squadra         Alain G.  2017-08-21 Confession: I am a foodie and I am a restaurant trained amateur Chef.<br&gt;Been wanting to try this~          5 http://www.yelp.ca/biz/la-squa~
##  2 La Squadra         Amelia J. 2018-12-19 I came here for a Christmas lunch with coworkers and we tried the set Christmas menu (appetizer + ma~          4 http://www.yelp.ca/biz/la-squa~
##  3 La Squadra         Michael ~ 2017-07-03 Beautiful venue, great service and incredible food.  Try Squadra pasta and pizza...and the Arancini ~          5 http://www.yelp.ca/biz/la-squa~
##  4 La Squadra         Cee Y.    2019-03-30 My husband and I stopped into this place as per a recommendation by Yelp. We had a fantastic time an~          5 http://www.yelp.ca/biz/la-squa~
##  5 La Squadra         Luc S.    2018-03-04 Best Italian restaurant in Gatineau ! The food is authentic and fresh with good wine recommendation.~          5 http://www.yelp.ca/biz/la-squa~
##  6 Kallisto Greek Re~ Amster S. 2020-04-18 I&amp;#39;ve been here twice. Once with my work friends and second with my family. I will come back ~          5 http://www.yelp.ca/biz/kallist~
##  7 Kallisto Greek Re~ Reema D.  2020-01-12 Waitress was pretty slow. Didn&amp;#39;t take our dinner orders until after we finished apps and she~          4 http://www.yelp.ca/biz/kallist~
##  8 Kallisto Greek Re~ Jennifer~ 2018-05-21 My husband and I had dinner here recently and overall it was very good 3.75 stars, rounded up to 4.<~          4 http://www.yelp.ca/biz/kallist~
##  9 Kallisto Greek Re~ Teena D.  2018-02-07 I had lunch today at Kallisto Greek Restaurant.<br&gt;<br&gt;I love chicken souvlaki and that&amp;#3~          2 http://www.yelp.ca/biz/kallist~
## 10 Kallisto Greek Re~ Janie M.  2019-06-26 Find there&amp;#39;s always warm and friendly service. Best Greek food in Ottawa!  My son, daughter ~          5 http://www.yelp.ca/biz/kallist~
## # ... with 9,392 more rows
…
## Loading required package: Matrix

## 
## Attaching package: 'Matrix'

## The following objects are masked from 'package:tidyr':
## 
##     expand, pack, unpack

## Loaded glmnet 4.0-2

## # A tibble: 251 x 3
##    term                 estimate penalty
##    <chr>                   <dbl>   <dbl>
##  1 (Intercept)           4.16        0.1
##  2 tfidf_text_amazing    0.0490      0.1
##  3 tfidf_text_delicious  0.0395      0.1
##  4 tfidf_text_great      0.0379      0.1
##  5 tfidf_text_best       0.0307      0.1
##  6 tfidf_text_and        0.00624     0.1
##  7 tfidf_text_2          0           0.1
##  8 tfidf_text_3          0           0.1
##  9 tfidf_text_34         0           0.1
## 10 tfidf_text_39         0           0.1
## # ... with 241 more rows
…
